%YAML 1.1
%TAG !u! tag:unity3d.com,2011:
--- !u!114 &11400000
MonoBehaviour:
  m_ObjectHideFlags: 0
  m_CorrespondingSourceObject: {fileID: 0}
  m_PrefabInstance: {fileID: 0}
  m_PrefabAsset: {fileID: 0}
  m_GameObject: {fileID: 0}
  m_Enabled: 1
  m_EditorHideFlags: 0
  m_Script: {fileID: 11500000, guid: cf6e256422e544371b99787f45b31957, type: 3}
  m_Name: Clock
  m_EditorClassIdentifier: 
  Name: Clock
  sprite: {fileID: 21300000, guid: 8dc25d5f84f704414a3f49dc3cb606e4, type: 3}
