%YAML 1.1
%TAG !u! tag:unity3d.com,2011:
--- !u!114 &11400000
MonoBehaviour:
  m_ObjectHideFlags: 0
  m_CorrespondingSourceObject: {fileID: 0}
  m_PrefabInstance: {fileID: 0}
  m_PrefabAsset: {fileID: 0}
  m_GameObject: {fileID: 0}
  m_Enabled: 1
  m_EditorHideFlags: 0
  m_Script: {fileID: 11500000, guid: e7634aecfb8c1435896b099f9aedea5d, type: 3}
  m_Name: Gate Circle
  m_EditorClassIdentifier: 
  Name: Circle
  Sprites:
  - {fileID: 21300000, guid: 9b71768018eea42e0a44acea48a7b1c9, type: 3}
  - {fileID: 21300000, guid: 1cd247ae66f724e8da36256d7c898276, type: 3}
